%YAML 1.1
%TAG !u! tag:unity3d.com,2011:
--- !u!74 &7400000
AnimationClip:
  m_ObjectHideFlags: 0
  m_CorrespondingSourceObject: {fileID: 0}
  m_PrefabInstance: {fileID: 0}
  m_PrefabAsset: {fileID: 0}
  m_Name: PhysicalAttack
  serializedVersion: 6
  m_Legacy: 0
  m_Compressed: 0
  m_UseHighQualityCurve: 1
  m_RotationCurves: []
  m_CompressedRotationCurves: []
  m_EulerCurves: []
  m_PositionCurves: []
  m_ScaleCurves: []
  m_FloatCurves: []
  m_PPtrCurves:
  - curve:
    - time: 0
      value: {fileID: 21300000, guid: 568ce070550bf94419234c4571a88c51, type: 3}
    - time: 0.05
      value: {fileID: 21300000, guid: 56b82119ecf42824ebf764ca8b0e2813, type: 3}
    - time: 0.1
      value: {fileID: 21300000, guid: c88cba44f29df674581fdf34562e4e6c, type: 3}
    - time: 0.15
      value: {fileID: 21300000, guid: e51be051b8da6e04ba5fe48697fba773, type: 3}
    - time: 0.2
      value: {fileID: 21300000, guid: 55cca8eb214681b4ebc887f7944e2a88, type: 3}
    - time: 0.25
      value: {fileID: 21300000, guid: a3e8f59532521db4ba3252e7970f8860, type: 3}
    - time: 0.3
      value: {fileID: 21300000, guid: bb354b7ea4a516b4f8bc3ad6202d6d58, type: 3}
    - time: 0.35
      value: {fileID: 21300000, guid: c77e8fe0793b2a44d9527da937e5f102, type: 3}
    attribute: m_Sprite
    path: 
    classID: 114
    script: {fileID: 11500000, guid: fe87c0e1cc204ed48ad3b37840f39efc, type: 3}
  m_SampleRate: 60
  m_WrapMode: 0
  m_Bounds:
    m_Center: {x: 0, y: 0, z: 0}
    m_Extent: {x: 0, y: 0, z: 0}
  m_ClipBindingConstant:
    genericBindings:
    - serializedVersion: 2
      path: 0
      attribute: 2015549526
      script: {fileID: 11500000, guid: fe87c0e1cc204ed48ad3b37840f39efc, type: 3}
      typeID: 114
      customType: 0
      isPPtrCurve: 1
    pptrCurveMapping:
    - {fileID: 21300000, guid: 568ce070550bf94419234c4571a88c51, type: 3}
    - {fileID: 21300000, guid: 56b82119ecf42824ebf764ca8b0e2813, type: 3}
    - {fileID: 21300000, guid: c88cba44f29df674581fdf34562e4e6c, type: 3}
    - {fileID: 21300000, guid: e51be051b8da6e04ba5fe48697fba773, type: 3}
    - {fileID: 21300000, guid: 55cca8eb214681b4ebc887f7944e2a88, type: 3}
    - {fileID: 21300000, guid: a3e8f59532521db4ba3252e7970f8860, type: 3}
    - {fileID: 21300000, guid: bb354b7ea4a516b4f8bc3ad6202d6d58, type: 3}
    - {fileID: 21300000, guid: c77e8fe0793b2a44d9527da937e5f102, type: 3}
  m_AnimationClipSettings:
    serializedVersion: 2
    m_AdditiveReferencePoseClip: {fileID: 0}
    m_AdditiveReferencePoseTime: 0
    m_StartTime: 0
    m_StopTime: 0.36666667
    m_OrientationOffsetY: 0
    m_Level: 0
    m_CycleOffset: 0
    m_HasAdditiveReferencePose: 0
    m_LoopTime: 1
    m_LoopBlend: 0
    m_LoopBlendOrientation: 0
    m_LoopBlendPositionY: 0
    m_LoopBlendPositionXZ: 0
    m_KeepOriginalOrientation: 0
    m_KeepOriginalPositionY: 1
    m_KeepOriginalPositionXZ: 0
    m_HeightFromFeet: 0
    m_Mirror: 0
  m_EditorCurves: []
  m_EulerEditorCurves: []
  m_HasGenericRootTransform: 0
  m_HasMotionFloatCurves: 0
  m_Events: []
