%YAML 1.1
%TAG !u! tag:unity3d.com,2011:
--- !u!114 &11400000
MonoBehaviour:
  m_ObjectHideFlags: 0
  m_CorrespondingSourceObject: {fileID: 0}
  m_PrefabInstance: {fileID: 0}
  m_PrefabAsset: {fileID: 0}
  m_GameObject: {fileID: 0}
  m_Enabled: 1
  m_EditorHideFlags: 0
  m_Script: {fileID: 11500000, guid: 3641a1c0cae286a4a977b97eb9ef5e44, type: 3}
  m_Name: Skeleton
  m_EditorClassIdentifier: 
  enemyName: skeleton
  hp: 30
  sprite: {fileID: 21300000, guid: b099da88170c1a8478513cd701ab970b, type: 3}
  reward: 25
  locations: 00000000
  moves:
  - physicalAttack: 5
    magicalAttack: 0
    armor: 0
    magicArmor: 0
    heal: 5
  - physicalAttack: 0
    magicalAttack: 0
    armor: 0
    magicArmor: 0
    heal: 15
  - physicalAttack: 0
    magicalAttack: 0
    armor: 2
    magicArmor: 0
    heal: 0
  - physicalAttack: 10
    magicalAttack: 0
    armor: 0
    magicArmor: 0
    heal: 0
